<svg width="34" height="34" viewBox="0 0 34 34" fill="none" xmlns="http://www.w3.org/2000/svg">
<path d="M28.0499 11.3407C28.2471 11.3407 28.429 11.4087 28.5735 11.5226L28.6874 11.6297L28.7163 11.6637C29.7039 12.8878 30.3326 14.362 30.5323 15.9221C30.7319 17.4822 30.4948 19.0672 29.8473 20.5006C29.1998 21.9339 28.1672 23.1595 26.8645 24.041C25.5619 24.9224 24.0402 25.4252 22.4688 25.4932L22.0999 25.5H11.8999C11.7281 25.5 11.5563 25.4949 11.3848 25.4847L14.2017 28.2982C14.3422 28.4391 14.4289 28.6248 14.4466 28.823C14.4643 29.0212 14.4119 29.2193 14.2986 29.3828L14.2017 29.5018C14.0608 29.6424 13.8751 29.729 13.6769 29.7467C13.4787 29.7645 13.2806 29.7121 13.1171 29.5987L12.9981 29.5018L8.74809 25.2518C8.60754 25.111 8.52086 24.9253 8.50315 24.7271C8.48545 24.5289 8.53783 24.3308 8.65119 24.1672L8.74809 24.0482L12.9981 19.7982C13.148 19.6476 13.3489 19.5586 13.5612 19.5488C13.7734 19.539 13.9817 19.609 14.1449 19.7451C14.3081 19.8812 14.4144 20.0735 14.4428 20.2841C14.4713 20.4947 14.4198 20.7083 14.2986 20.8828L14.2017 21.0018L11.4188 23.783L11.6568 23.7966L11.8999 23.8H22.0999C23.384 23.8001 24.642 23.4366 25.7281 22.7516C26.8143 22.0665 27.6842 21.088 28.2374 19.929C28.7905 18.7701 29.0042 17.4783 28.8537 16.203C28.7032 14.9277 28.1946 13.7211 27.3869 12.7228C27.2871 12.5978 27.2246 12.4472 27.2065 12.2883C27.1885 12.1294 27.2156 11.9686 27.2849 11.8244C27.3541 11.6802 27.4627 11.5585 27.598 11.4733C27.7333 11.388 27.8899 11.3426 28.0499 11.3424V11.3407ZM19.7981 4.49821C19.9389 4.35767 20.1246 4.27099 20.3228 4.25328C20.521 4.23558 20.7191 4.28796 20.8827 4.40131L21.0017 4.49821L25.2517 8.74821L25.3486 8.86721C25.4465 9.00916 25.499 9.17755 25.499 9.35001C25.499 9.52248 25.4465 9.69087 25.3486 9.83281L25.2517 9.95181L21.0017 14.2018L20.8827 14.2987C20.7407 14.3967 20.5724 14.4491 20.3999 14.4491C20.2274 14.4491 20.059 14.3967 19.9171 14.2987L19.7981 14.2018L19.7012 14.0828C19.6032 13.9409 19.5508 13.7725 19.5508 13.6C19.5508 13.4275 19.6032 13.2592 19.7012 13.1172L19.7981 12.9982L22.581 10.217L22.343 10.2034L22.0999 10.2H11.8999C10.6146 10.1999 9.3557 10.5641 8.26897 11.2503C7.18224 11.9365 6.31222 12.9166 5.75976 14.077C5.2073 15.2375 4.99501 16.5307 5.14751 17.8069C5.30001 19.083 5.81104 20.2898 6.62139 21.2874C6.75687 21.468 6.81508 21.695 6.7832 21.9185C6.75131 22.142 6.63196 22.3436 6.45139 22.4791C6.36198 22.5462 6.26023 22.595 6.15195 22.6228C6.04367 22.6505 5.93099 22.6567 5.82033 22.6409C5.59684 22.609 5.39517 22.4897 5.25969 22.3091C4.27883 21.0832 3.6567 19.6095 3.46228 18.0515C3.26786 16.4935 3.50874 14.9122 4.15822 13.4828C4.8077 12.0533 5.84039 10.8317 7.14178 9.95342C8.44317 9.07511 9.96239 8.57439 11.531 8.50681L11.8999 8.50001H22.0999C22.2733 8.50001 22.445 8.50511 22.615 8.51531L19.7981 5.70181L19.7012 5.58281C19.5878 5.41928 19.5354 5.22115 19.5532 5.02296C19.5709 4.82477 19.6575 4.63907 19.7981 4.49821Z" fill="#005EFF"/>
</svg>
